<?xml version="1.0" encoding="utf-8"?>
<!-- Generator: Adobe Illustrator 21.0.0, SVG Export Plug-In . SVG Version: 6.00 Build 0)  -->
<svg version="1.1"
	 id="Layer_1" xmlns:cc="http://creativecommons.org/ns#" xmlns:dc="http://purl.org/dc/elements/1.1/" xmlns:inkscape="http://www.inkscape.org/namespaces/inkscape" xmlns:rdf="http://www.w3.org/1999/02/22-rdf-syntax-ns#" xmlns:sodipodi="http://sodipodi.sourceforge.net/DTD/sodipodi-0.dtd" xmlns:svg="http://www.w3.org/2000/svg"
	 xmlns="http://www.w3.org/2000/svg" xmlns:xlink="http://www.w3.org/1999/xlink" x="0px" y="0px" viewBox="0 0 44.1 39.3"
	 style="enable-background:new 0 0 44.1 39.3;" xml:space="preserve">
<style type="text/css">
	.st0{fill:#4B4C4E;}
</style>
<g>
	<g>
		<g>
			<path class="st0" d="M27.9,23.8c-2.4-2-5-3.3-5.5-3.5c-0.1,0-0.1-0.1-0.1-0.2v-3.7c0.5-0.3,0.8-0.9,0.8-1.5V11
				c0-1.9-1.6-3.5-3.5-3.5h-0.4h-0.4c-1.9,0-3.5,1.6-3.5,3.5v3.9c0,0.6,0.3,1.1,0.8,1.5v3.7c0,0.1,0,0.1-0.1,0.2
				c-0.5,0.3-3.1,1.6-5.5,3.5c-0.4,0.4-0.7,0.9-0.7,1.5V28h9.5h9.5v-2.7C28.6,24.7,28.4,24.1,27.9,23.8z"/>
		</g>
		<g>
			<path class="st0" d="M36.6,21.2c-2-1.7-4.2-2.8-4.6-3c-0.1,0-0.1-0.1-0.1-0.1V15c0.4-0.3,0.7-0.7,0.7-1.2v-3.3
				c0-1.6-1.3-2.9-2.9-2.9h-0.3h-0.3c-1.6,0-2.9,1.3-2.9,2.9v3.3c0,0.5,0.3,1,0.7,1.2v3c0,0.1,0,0.1-0.1,0.1
				c-0.3,0.1-1.2,0.6-2.4,1.3c1.2,0.6,3,1.7,4.7,3.2c0.6,0.5,1,1.2,1.2,1.9h7.2v-2.2C37.2,21.9,37,21.5,36.6,21.2z"/>
		</g>
		<g>
			<path class="st0" d="M11.8,18.2c-0.1,0-0.1-0.1-0.1-0.1V15c0.4-0.3,0.7-0.7,0.7-1.2v-3.3c0-1.6-1.3-2.9-2.9-2.9H9.1H8.8
				c-1.6,0-2.9,1.3-2.9,2.9v3.3c0,0.5,0.3,1,0.7,1.2v3c0,0.1,0,0.1-0.1,0.1c-0.4,0.2-2.6,1.3-4.6,3c-0.4,0.3-0.6,0.7-0.6,1.2v2.2
				h7.2c0.1-0.8,0.5-1.4,1.2-1.9c1.7-1.4,3.5-2.5,4.7-3.2C13,18.8,12.1,18.3,11.8,18.2z"/>
		</g>
	</g>
</g>
</svg>
