<?xml version="1.0" encoding="utf-8"?>
<!-- Generator: Adobe Illustrator 16.0.0, SVG Export Plug-In . SVG Version: 6.00 Build 0)  -->
<!DOCTYPE svg PUBLIC "-//W3C//DTD SVG 1.1//EN" "http://www.w3.org/Graphics/SVG/1.1/DTD/svg11.dtd">
<svg version="1.1" id="Layer_1" xmlns="http://www.w3.org/2000/svg" xmlns:xlink="http://www.w3.org/1999/xlink" x="0px" y="0px"
	 width="26px" height="20px" viewBox="0 0 26 20" enable-background="new 0 0 26 20" xml:space="preserve">
<g>
	<path fill="#595959" d="M4.022,18.635c-1.733-1.764-2.804-4.182-2.804-6.853C1.219,6.379,5.598,2,11,2s9.781,4.379,9.781,9.782
		c0,2.671-1.07,5.089-2.804,6.853c-0.493-2.137-1.94-3.907-3.871-4.838c0.888-0.83,1.441-2.012,1.441-3.321
		c0-2.511-2.036-4.548-4.548-4.548s-4.547,2.037-4.547,4.548c0,1.31,0.554,2.491,1.44,3.321C5.963,14.728,4.515,16.5,4.022,18.635z"
		/>
</g>
</svg>
