<?xml version="1.0" encoding="utf-8"?>
<!-- Generator: Adobe Illustrator 16.0.0, SVG Export Plug-In . SVG Version: 6.00 Build 0)  -->
<!DOCTYPE svg PUBLIC "-//W3C//DTD SVG 1.1//EN" "http://www.w3.org/Graphics/SVG/1.1/DTD/svg11.dtd">
<svg version="1.1" id="Layer_1" xmlns="http://www.w3.org/2000/svg" xmlns:xlink="http://www.w3.org/1999/xlink" x="0px" y="0px"
	 width="60px" height="40px" viewBox="0 10 60 40" enable-background="new 0 10 60 40" xml:space="preserve">
<g>
	<g>
		<path fill="#595959" d="M36.571,27.325H22.065V12.819c0-0.715-0.919-2.043-2.758-2.043s-2.758,1.43-2.758,2.043v14.506H2.043
			C1.328,27.325,0,28.245,0,30.083c0,1.736,1.43,2.759,2.043,2.759h14.506v14.505c0,0.716,0.919,2.044,2.758,2.044
			c1.736,0,2.758-1.43,2.758-2.044V32.842h14.506c0.715,0,2.043-0.92,2.043-2.759C38.614,28.245,37.286,27.325,36.571,27.325z"/>
	</g>
</g>
</svg>
