<?xml version="1.0" encoding="utf-8"?>
<!-- Generator: Adobe Illustrator 16.0.0, SVG Export Plug-In . SVG Version: 6.00 Build 0)  -->
<!DOCTYPE svg PUBLIC "-//W3C//DTD SVG 1.1//EN" "http://www.w3.org/Graphics/SVG/1.1/DTD/svg11.dtd">
<svg version="1.1" id="Layer_1" xmlns="http://www.w3.org/2000/svg" xmlns:xlink="http://www.w3.org/1999/xlink" x="0px" y="0px"
	 width="54.696px" height="43.98px" viewBox="0 0 54.696 43.98" enable-background="new 0 0 54.696 43.98" xml:space="preserve">
<path fill="#FFFFFF" d="M41.19,22.111c0.374,0.377,0.539,0.91,0.45,1.431l-1.115,6.816c-0.114,0.691-0.656,1.229-1.345,1.345
	c-0.088,0.007-0.174,0.007-0.261,0c-0.456,0.001-0.896-0.178-1.22-0.497l-1.283-1.281l-8.583,8.6
	c-0.841,0.841-2.202,0.841-3.043,0.001c0-0.001-0.003-0.001-0.003-0.001l-4.354-4.354L11.24,43.35c-0.841,0.841-2.204,0.841-3.044,0
	c-0.841-0.841-0.841-2.204,0-3.045l0,0l10.704-10.701c0.84-0.84,2.204-0.84,3.044,0l0,0L26.3,33.96l7.074-7.077l-1.296-1.287
	c-0.35-0.339-0.534-0.814-0.507-1.3c0.053-0.762,0.621-1.386,1.374-1.511l6.816-1.126c0.088-0.016,0.177-0.023,0.27-0.023
	C40.464,21.635,40.884,21.807,41.19,22.111z M8.281,34.816l1.614-1.593l1.556-1.558c0.716-0.693,0.794-1.813,0.183-2.597
	c-0.664-0.807-1.856-0.925-2.664-0.262c-0.046,0.038-0.091,0.08-0.134,0.123l-1.632,1.601c-1.878-2.373-3.054-5.225-3.4-8.23h2.404
	c1.045-0.002,1.892-0.849,1.892-1.894c0-1.043-0.848-1.89-1.892-1.891h-2.38c0.336-3.005,1.506-5.854,3.375-8.23L8.819,11.9
	c0.739,0.74,1.938,0.738,2.677-0.004c0.043-0.042,0.083-0.088,0.121-0.133c0.609-0.785,0.53-1.901-0.183-2.592L9.896,7.615
	c2.373-1.878,5.222-3.056,8.228-3.4v2.283c0.002,1.044,0.85,1.891,1.896,1.891c1.043-0.001,1.891-0.847,1.893-1.891V4.214
	l0.626,0.086c3.39,0.559,6.514,2.181,8.924,4.632l0.073,0.073c2.143,2.102,3.659,4.763,4.371,7.682l0.021,0.098
	c0.231,1.059,1.245,1.754,2.313,1.589c1.136-0.216,1.88-1.311,1.666-2.445c-0.009-0.036-0.015-0.068-0.023-0.104
	C37.351,4.856,26.406-1.981,15.436,0.552C4.467,3.086-2.368,14.032,0.164,24.998c0.859,3.718,2.746,7.122,5.443,9.821
	C6.347,35.556,7.543,35.553,8.281,34.816z M29.431,11.047c-0.648-0.656-1.688-0.713-2.405-0.13l-6.369,5.101
	c-2.434-0.332-4.676,1.373-5.009,3.807c-0.332,2.434,1.372,4.676,3.808,5.009c2.434,0.332,4.676-1.373,5.008-3.808
	c0.026-0.201,0.042-0.402,0.042-0.606c0-0.201-0.016-0.401-0.047-0.601l5.104-6.332c0.589-0.719,0.531-1.771-0.135-2.421
	L29.431,11.047z"/>
</svg>
