<?xml version="1.0" encoding="utf-8"?>
<!-- Generator: Adobe Illustrator 16.0.0, SVG Export Plug-In . SVG Version: 6.00 Build 0)  -->
<!DOCTYPE svg PUBLIC "-//W3C//DTD SVG 1.1//EN" "http://www.w3.org/Graphics/SVG/1.1/DTD/svg11.dtd">
<svg version="1.1" id="Layer_1" xmlns="http://www.w3.org/2000/svg" xmlns:xlink="http://www.w3.org/1999/xlink" x="0px" y="0px"
	 width="20.557px" height="26.125px" viewBox="3.75 6.75 20.557 26.125" enable-background="new 3.75 6.75 20.557 26.125"
	 xml:space="preserve">
<g transform="translate(0,-952.36218)">
	<path fill="#FFFFFF" d="M6.909,980.847c-0.397,0-0.719,0.321-0.719,0.719c0,0.396,0.322,0.719,0.719,0.719h14.384
		c0.397,0,0.721-0.322,0.721-0.719c0-0.397-0.323-0.719-0.721-0.719H6.909z"/>
	<path fill="#FFFFFF" d="M14.102,979.408c-0.167,0-0.388-0.101-0.495-0.203l-6.113-5.753c-0.277-0.271-0.31-0.704-0.028-1.018
		c0.251-0.281,0.743-0.287,1.017-0.028l4.899,4.618v-17.193c0-0.397,0.322-0.719,0.72-0.719c0.396,0,0.719,0.322,0.719,0.719v17.193
		l4.9-4.618c0.272-0.259,0.751-0.241,1.017,0.028c0.278,0.283,0.254,0.752-0.028,1.018l-6.113,5.753
		C14.429,979.374,14.27,979.404,14.102,979.408z"/>
</g>
</svg>
