<?xml version="1.0" encoding="utf-8"?>
<!-- Generator: Adobe Illustrator 16.0.0, SVG Export Plug-In . SVG Version: 6.00 Build 0)  -->
<!DOCTYPE svg PUBLIC "-//W3C//DTD SVG 1.1//EN" "http://www.w3.org/Graphics/SVG/1.1/DTD/svg11.dtd">
<svg version="1.1" id="Layer_1" xmlns="http://www.w3.org/2000/svg" xmlns:xlink="http://www.w3.org/1999/xlink" x="0px" y="0px"
	 width="21.667px" height="16.834px" viewBox="0 0 21.667 16.834" enable-background="new 0 0 21.667 16.834" xml:space="preserve">
<path fill="#FFFFFF" d="M15.613,0.042C15.593,0.021,15.571,0,15.53,0H0.101C0.057,0,0.016,0.02,0.016,0.042
	c-0.021,0.021-0.021,0.064,0,0.085l6.162,9.861v6.61c0,0.04,0,0.04,0,0.04c0.022,0.02,0.043,0.02,0.084,0.02l0,0
	c1.763,0,3.187-1.423,3.187-3.187V9.966l6.164-9.838C15.636,0.106,15.636,0.063,15.613,0.042z"/>
</svg>
