<?xml version="1.0" encoding="utf-8"?>
<!-- Generator: Adobe Illustrator 16.0.0, SVG Export Plug-In . SVG Version: 6.00 Build 0)  -->
<!DOCTYPE svg PUBLIC "-//W3C//DTD SVG 1.1//EN" "http://www.w3.org/Graphics/SVG/1.1/DTD/svg11.dtd">
<svg version="1.1" id="Layer_1" xmlns="http://www.w3.org/2000/svg" xmlns:xlink="http://www.w3.org/1999/xlink" x="0px" y="0px"
	 width="60px" height="60px" viewBox="0 0 60 60" enable-background="new 0 0 60 60" xml:space="preserve">
<title>09</title>
<g>
	<path fill="#2394DA" d="M26.502,0C19.395-0.027,13.606,5.702,13.56,12.81v5.595H7.401v29.109h38.202V18.405h-6.16V12.81
		C39.398,5.702,33.609-0.027,26.502,0z M16.875,12.81c0-5.317,4.31-9.628,9.627-9.628c5.318,0,9.628,4.311,9.628,9.628v5.595H16.875
		V12.81z M42.282,44.205H10.716V21.719h31.573L42.282,44.205z"/>
</g>
</svg>
