<?xml version="1.0" encoding="utf-8"?>
<!-- Generator: Adobe Illustrator 16.0.0, SVG Export Plug-In . SVG Version: 6.00 Build 0)  -->
<!DOCTYPE svg PUBLIC "-//W3C//DTD SVG 1.1//EN" "http://www.w3.org/Graphics/SVG/1.1/DTD/svg11.dtd">
<svg version="1.1" id="Layer_1" xmlns="http://www.w3.org/2000/svg" xmlns:xlink="http://www.w3.org/1999/xlink" x="0px" y="0px"
	 width="51.655px" height="39.776px" viewBox="10.333 28.538 51.655 39.776" enable-background="new 10.333 28.538 51.655 39.776"
	 xml:space="preserve">
<path fill="#FFFFFF" d="M38.289,28.538H22.384c-6.576,0-11.932,5.345-11.932,11.929V52.4c0,3.402,1.443,6.574,3.978,8.841v7.074
	l12.565-3.985h11.293c6.575,0,11.933-5.346,11.933-11.93V40.467C50.221,33.883,44.863,28.538,38.289,28.538z M30.334,44.445
	c3.287,0,5.972,2.672,5.972,5.971c0,2.587-1.667,4.772-3.977,5.599v2.356h-3.977v-2.356c-2.313-0.826-3.977-3.012-3.977-5.599h3.977
	c0,1.094,0.89,1.993,1.992,1.993c1.093,0,1.994-0.893,1.994-1.993c0-1.104-0.912-1.994-2.005-1.994c-3.287,0-5.97-2.672-5.97-5.971
	c0-2.589,1.664-4.772,3.977-5.599v-2.357h3.976v2.366c2.311,0.827,3.976,3.012,3.976,5.6h-3.976c0-1.093-0.892-1.994-1.994-1.994
	c-1.094,0-1.994,0.892-1.994,1.994C28.329,43.564,29.244,44.445,30.334,44.445z"/>
</svg>
