[{
  "text": "Select Timezone",
  "value": ""
}, {
  "text": "(UTC-12:00) International Date Line West",
  "value": "(UTC-12:00) International Date Line West"
}, {
  "text": "(UTC-11:00) Coordinated Universal Time-11",
  "value": "(UTC-11:00) Coordinated Universal Time-11"
}, {
  "text": "(UTC-10:00) Hawaii",
  "value": "(UTC-10:00) Hawaii"
}, {
  "text": "(UTC-09:00) Alaska",
  "value": "(UTC-09:00) Alaska"
}, {
  "text": "(UTC-08:00) Baja California",
  "value": "(UTC-08:00) Baja California"
}, {
  "text": "(UTC-08:00) Pacific Time (US & Canada)",
  "value": "(UTC-08:00) Pacific Time (US & Canada)"
}, {
  "text": "(UTC-07:00) Arizona",
  "value": "(UTC-07:00) Arizona"
}, {
  "text": "(UTC-07:00) Chihuahua, La Paz, Mazatlan",
  "value": "(UTC-07:00) Chihuahua, La Paz, Mazatlan"
}, {
  "text": "(UTC-07:00) Mountain Time (US & Canada)",
  "value": "(UTC-07:00) Mountain Time (US & Canada)"
}, {
  "text": "(UTC-06:00) Central America",
  "value": "(UTC-06:00) Central America"
}, {
  "text": "(UTC-06:00) Central Time (US & Canada)",
  "value": "(UTC-06:00) Central Time (US & Canada)"
}, {
  "text": "(UTC-06:00) Guadalajara, Mexico City, Monterrey",
  "value": "(UTC-06:00) Guadalajara, Mexico City, Monterrey"
}, {
  "text": "(UTC-06:00) Saskatchewan",
  "value": "(UTC-06:00) Saskatchewan"
}, {
  "text": "(UTC-05:00) Bogota, Lima, Quito",
  "value": "(UTC-05:00) Bogota, Lima, Quito"
}, {
  "text": "(UTC-05:00) Eastern Time (US & Canada)",
  "value": "(UTC-05:00) Eastern Time (US & Canada)"
}, {
  "text": "(UTC-05:00) Indiana (East)",
  "value": "(UTC-05:00) Indiana (East)"
}, {
  "text": "(UTC-04:30) Caracas",
  "value": "(UTC-04:30) Caracas"
}, {
  "text": "(UTC-04:00) Asuncion",
  "value": "(UTC-04:00) Asuncion"
}, {
  "text": "(UTC-04:00) Atlantic Time (Canada)",
  "value": "(UTC-04:00) Atlantic Time (Canada)"
}, {
  "text": "(UTC-04:00) Cuiaba",
  "value": "(UTC-04:00) Cuiaba"
}, {
  "text": "(UTC-04:00) Georgetown, La Paz, Manaus, San Juan",
  "value": "(UTC-04:00) Georgetown, La Paz, Manaus, San Juan"
}, {
  "text": "(UTC-04:00) Santiago",
  "value": "(UTC-04:00) Santiago"
}, {
  "text": "(UTC-03:30) Newfoundland",
  "value": "(UTC-03:30) Newfoundland"
}, {
  "text": "(UTC-03:00) Brasilia",
  "value": "(UTC-03:00) Brasilia"
}, {
  "text": "(UTC-03:00) Buenos Aires",
  "value": "(UTC-03:00) Buenos Aires"
}, {
  "text": "(UTC-03:00) Cayenne, Fortaleza",
  "value": "(UTC-03:00) Cayenne, Fortaleza"
}, {
  "text": "(UTC-03:00) Greenland",
  "value": "(UTC-03:00) Greenland"
}, {
  "text": "(UTC-03:00) Montevideo",
  "value": "(UTC-03:00) Montevideo"
}, {
  "text": "(UTC-03:00) Salvador",
  "value": "(UTC-03:00) Salvador"
}, {
  "text": "(UTC-02:00) Coordinated Universal Time-02",
  "value": "(UTC-02:00) Coordinated Universal Time-02"
}, {
  "text": "(UTC-02:00) Mid-Atlantic - Old",
  "value": "(UTC-02:00) Mid-Atlantic - Old"
}, {
  "text": "(UTC-01:00) Azores",
  "value": "(UTC-01:00) Azores"
}, {
  "text": "(UTC-01:00) Cape Verde Is.",
  "value": "(UTC-01:00) Cape Verde Is."
}, {
  "text": "(UTC) Casablanca",
  "value": "(UTC) Casablanca"
}, {
  "text": "(UTC) Coordinated Universal Time",
  "value": "(UTC) Coordinated Universal Time"
}, {
  "text": "(UTC) Dublin, Edinburgh, Lisbon, London",
  "value": "(UTC) Dublin, Edinburgh, Lisbon, London"
}, {
  "text": "(UTC) Monrovia, Reykjavik",
  "value": "(UTC) Monrovia, Reykjavik"
}, {
  "text": "(UTC+01:00) Amsterdam, Berlin, Bern, Rome, Stockholm, Vienna",
  "value": "(UTC+01:00) Amsterdam, Berlin, Bern, Rome, Stockholm, Vienna"
}, {
  "text": "(UTC+01:00) Belgrade, Bratislava, Budapest, Ljubljana, Prague",
  "value": "(UTC+01:00) Belgrade, Bratislava, Budapest, Ljubljana, Prague"
}, {
  "text": "(UTC+01:00) Brussels, Copenhagen, Madrid, Paris",
  "value": "(UTC+01:00) Brussels, Copenhagen, Madrid, Paris"
}, {
  "text": "(UTC+01:00) Sarajevo, Skopje, Warsaw, Zagreb",
  "value": "(UTC+01:00) Sarajevo, Skopje, Warsaw, Zagreb"
}, {
  "text": "(UTC+01:00) West Central Africa",
  "value": "(UTC+01:00) West Central Africa"
}, {
  "text": "(UTC+01:00) Windhoek",
  "value": "(UTC+01:00) Windhoek"
}, {
  "text": "(UTC+02:00) Athens, Bucharest",
  "value": "(UTC+02:00) Athens, Bucharest"
}, {
  "text": "(UTC+02:00) Beirut",
  "value": "(UTC+02:00) Beirut"
}, {
  "text": "(UTC+02:00) Cairo",
  "value": "(UTC+02:00) Cairo"
}, {
  "text": "(UTC+02:00) Damascus",
  "value": "(UTC+02:00) Damascus"
}, {
  "text": "(UTC+02:00) E. Europe",
  "value": "(UTC+02:00) E. Europe"
}, {
  "text": "(UTC+02:00) Harare, Pretoria",
  "value": "(UTC+02:00) Harare, Pretoria"
}, {
  "text": "(UTC+02:00) Helsinki, Kyiv, Riga, Sofia, Tallinn, Vilnius",
  "value": "(UTC+02:00) Helsinki, Kyiv, Riga, Sofia, Tallinn, Vilnius"
}, {
  "text": "(UTC+02:00) Istanbul",
  "value": "(UTC+02:00) Istanbul"
}, {
  "text": "(UTC+02:00) Jerusalem",
  "value": "(UTC+02:00) Jerusalem"
}, {
  "text": "(UTC+02:00) Tripoli",
  "value": "(UTC+02:00) Tripoli"
}, {
  "text": "(UTC+03:00) Amman",
  "value": "(UTC+03:00) Amman"
}, {
  "text": "(UTC+03:00) Baghdad",
  "value": "(UTC+03:00) Baghdad"
}, {
  "text": "(UTC+03:00) Kaliningrad, Minsk",
  "value": "(UTC+03:00) Kaliningrad, Minsk"
}, {
  "text": "(UTC+03:00) Kuwait, Riyadh",
  "value": "(UTC+03:00) Kuwait, Riyadh"
}, {
  "text": "(UTC+03:00) Nairobi",
  "value": "(UTC+03:00) Nairobi"
}, {
  "text": "(UTC+03:30) Tehran",
  "value": "(UTC+03:30) Tehran"
}, {
  "text": "(UTC+04:00) Abu Dhabi, Muscat",
  "value": "(UTC+04:00) Abu Dhabi, Muscat"
}, {
  "text": "(UTC+04:00) Baku",
  "value": "(UTC+04:00) Baku"
}, {
  "text": "(UTC+04:00) Moscow, St. Petersburg, Volgograd",
  "value": "(UTC+04:00) Moscow, St. Petersburg, Volgograd"
}, {
  "text": "(UTC+04:00) Port Louis",
  "value": "(UTC+04:00) Port Louis"
}, {
  "text": "(UTC+04:00) Tbilisi",
  "value": "(UTC+04:00) Tbilisi"
}, {
  "text": "(UTC+04:00) Yerevan",
  "value": "(UTC+04:00) Yerevan"
}, {
  "text": "(UTC+04:30) Kabul",
  "value": "(UTC+04:30) Kabul"
}, {
  "text": "(UTC+05:00) Ashgabat, Tashkent",
  "value": "(UTC+05:00) Ashgabat, Tashkent"
}, {
  "text": "(UTC+05:00) Islamabad, Karachi",
  "value": "(UTC+05:00) Islamabad, Karachi"
}, {
  "text": "(UTC+05:30) Chennai, Kolkata, Mumbai, New Delhi",
  "value": "(UTC+05:30) Chennai, Kolkata, Mumbai, New Delhi"
}, {
  "text": "(UTC+05:30) Sri Jayawardenepura",
  "value": "(UTC+05:30) Sri Jayawardenepura"
}, {
  "text": "(UTC+05:45) Kathmandu",
  "value": "(UTC+05:45) Kathmandu"
}, {
  "text": "(UTC+06:00) Astana",
  "value": "(UTC+06:00) Astana"
}, {
  "text": "(UTC+06:00) Dhaka",
  "value": "(UTC+06:00) Dhaka"
}, {
  "text": "(UTC+06:00) Ekaterinburg",
  "value": "(UTC+06:00) Ekaterinburg"
}, {
  "text": "(UTC+06:30) Yangon (Rangoon)",
  "value": "(UTC+06:30) Yangon (Rangoon)"
}, {
  "text": "(UTC+07:00) Bangkok, Hanoi, Jakarta",
  "value": "(UTC+07:00) Bangkok, Hanoi, Jakarta"
}, {
  "text": "(UTC+07:00) Novosibirsk",
  "value": "(UTC+07:00) Novosibirsk"
}, {
  "text": "(UTC+08:00) Beijing, Chongqing, Hong Kong, Urumqi",
  "value": "(UTC+08:00) Beijing, Chongqing, Hong Kong, Urumqi"
}, {
  "text": "(UTC+08:00) Krasnoyarsk",
  "value": "(UTC+08:00) Krasnoyarsk"
}, {
  "text": "(UTC+08:00) Kuala Lumpur, Singapore",
  "value": "(UTC+08:00) Kuala Lumpur, Singapore"
}, {
  "text": "(UTC+08:00) Perth",
  "value": "(UTC+08:00) Perth"
}, {
  "text": "(UTC+08:00) Taipei",
  "value": "(UTC+08:00) Taipei"
}, {
  "text": "(UTC+08:00) Ulaanbaatar",
  "value": "(UTC+08:00) Ulaanbaatar"
}, {
  "text": "(UTC+09:00) Irkutsk",
  "value": "(UTC+09:00) Irkutsk"
}, {
  "text": "(UTC+09:00) Osaka, Sapporo, Tokyo",
  "value": "(UTC+09:00) Osaka, Sapporo, Tokyo"
}, {
  "text": "(UTC+09:00) Seoul",
  "value": "(UTC+09:00) Seoul"
}, {
  "text": "(UTC+09:30) Adelaide",
  "value": "(UTC+09:30) Adelaide"
}, {
  "text": "(UTC+09:30) Darwin",
  "value": "(UTC+09:30) Darwin"
}, {
  "text": "(UTC+10:00) Brisbane",
  "value": "(UTC+10:00) Brisbane"
}, {
  "text": "(UTC+10:00) Canberra, Melbourne, Sydney",
  "value": "(UTC+10:00) Canberra, Melbourne, Sydney"
}, {
  "text": "(UTC+10:00) Guam, Port Moresby",
  "value": "(UTC+10:00) Guam, Port Moresby"
}, {
  "text": "(UTC+10:00) Hobart",
  "value": "(UTC+10:00) Hobart"
}, {
  "text": "(UTC+10:00) Yakutsk",
  "value": "(UTC+10:00) Yakutsk"
}, {
  "text": "(UTC+11:00) Solomon Is., New Caledonia",
  "value": "(UTC+11:00) Solomon Is., New Caledonia"
}, {
  "text": "(UTC+11:00) Vladivostok",
  "value": "(UTC+11:00) Vladivostok"
}, {
  "text": "(UTC+12:00) Auckland, Wellington",
  "value": "(UTC+12:00) Auckland, Wellington"
}, {
  "text": "(UTC+12:00) Coordinated Universal Time+12",
  "value": "(UTC+12:00) Coordinated Universal Time+12"
}, {
  "text": "(UTC+12:00) Fiji",
  "value": "(UTC+12:00) Fiji"
}, {
  "text": "(UTC+12:00) Magadan",
  "value": "(UTC+12:00) Magadan"
}, {
  "text": "(UTC+12:00) Petropavlovsk-Kamchatsky - Old",
  "value": "(UTC+12:00) Petropavlovsk-Kamchatsky - Old"
}, {
  "text": "(UTC+13:00) Nuku'alofa",
  "value": "(UTC+13:00) Nuku'alofa"
}, {
  "text": "(UTC+13:00) Samoa",
  "value": "(UTC+13:00) Samoa"
}]
